…
1. [Weighting European Social SurveyData](https://www.europeansocialsurvey.org/docs/methodology/ESS_weighting_data_1.pdf)
2. [Federico Vegetti: Survey Weights with R](https://federicovegetti.github.io/teaching/heidelberg_2018/lab/sst_lab_day2.html)
3. Kieran Healy: Data Visualization. (See. Chapter on ["Plots from complex surveys"](https://socviz.co/index.html))
4. Thomas Lumley. 2010. [Complex Surveys: A Guide to Analysis Using R](https://onlinelibrary.wiley.com/doi/book/10.1002/9780470580066)

Data are downloadable from ESS site after registration. I will use a subsample of four (V4) countries and limited number of columns.   

First read SPSS labelled data with haven package functions:
```r
iess <- read_sav("data/ESS1-8e01.sav") %>% as_factor()
```
Note that `as_factor`function converts all haven labelled columns to factors and user-missing values (like 88=DK) to `NA`.

    # A tibble: 51,263 x 40
       cntry cname cedition cproddat cseqno name  essround edition  idno
       <fct> <chr> <chr>    <chr>     <dbl> <chr> <fct>    <chr>   <dbl>
     1 Czec… ESS1… 1.0      12.12.2…  51660 ESS1… 1        6.6         1
     2 Czec… ESS1… 1.0      12.12.2…  51661 ESS1… 1        6.6         2
     3 Czec… ESS1… 1.0      12.12.2…  51662 ESS1… 1        6.6         3
     4 Czec… ESS1… 1.0      12.12.2…  51663 ESS1… 1        6.6         4
     5 Czec… ESS1… 1.0      12.12.2…  51664 ESS1… 1        6.6         7
     6 Czec… ESS1… 1.0      12.12.2…  51665 ESS1… 1        6.6         8
     7 Czec… ESS1… 1.0      12.12.2…  51666 ESS1… 1        6.6         9
     8 Czec… ESS1… 1.0      12.12.2…  51667 ESS1… 1        6.6        10
     9 Czec… ESS1… 1.0      12.12.2…  51668 ESS1… 1        6.6        16
    10 Czec… ESS1… 1.0      12.12.2…  51669 ESS1… 1        6.6        17
    # … with 51,253 more rows, and 31 more variables: dweight <dbl>,
    #   pspwght <dbl>, pweight <dbl>, netuse <fct>, ppltrst <fct>,
    #   pplfair <fct>, pplhlp <fct>, trstprl <fct>, trstlgl <fct>,
    #   trstplc <fct>, trstplt <fct>, trstprt <fct>, trstep <fct>,
…
